#10 18
1 . . . . . . . . . . . . . 3 . . .
. . 2 . . . . . . . . 4 . . . . 9 .
. . . . . . 7 . . . . . . 6 . . . .
. . 3 . . . . . . . . . . . . . 8 .
. . . . . . . . . . . . 7 . . . . .
. . . . . . . . 6 . . . . . . . . .
. . . . . . . . . . . . 5 . . . . .
. . 4 . . . . . . . . . . . 9 . . .
. . . . 5 . 8 . . . . . . . . 2 . .
. . . . . . . . . . . . . . . . . 1
